risultati reali;risultati calcolati
0;0
0;0
0;0
0;0
0;0
0;0
0;0
9;9
0;0
0;0
0;0
0;0
0;0
0;0
1;3
0;0
0;0
0;0
9;9
0;0
0;0
0;0
0;0
0;0
1;1
0;0
0;0
0;0
0;0
0;0
0;0
0;0
0;0
9;9
0;1
0;0
0;0
3;3
0;0
0;0
9;9
0;0
0;0
0;0
0;0
0;0
0;0
0;0
0;0
0;0
0;0
0;0
0;0
0;0
0;0
0;0
0;0
0;1
0;0
0;0
0;0
0;0
0;0
0;0
0;0
0;0
0;0
0;0
0;0
0;0
0;0
0;0
1;1
0;0
0;0
0;0
0;0
0;0
0;0
0;0
0;0
0;0
0;0
0;0
0;0
0;0
0;0
0;0
0;0
0;0
0;0
0;0
0;0
9;9
0;0
0;3
0;3
0;0
0;0
0;0
0;0
0;0
1;0
0;0
9;9
0;0
0;0
0;0
0;0
0;0
0;0
0;0
0;0
0;0
0;0
8;8
0;0
0;0
0;0
0;0
0;0
0;0
8;8
0;0
0;0
8;8
0;0
0;0
9;9
0;0
0;0
9;9
0;0
0;0
0;0
0;0
0;0
0;0
0;0
0;0
4;0
0;0
0;0
0;0
0;0
0;0
0;0
0;0
0;0
0;0
0;0
0;0
1;1
0;0
0;0
9;9
0;0
0;0
0;0
9;9
0;0
0;0
0;0
8;8
0;0
0;9
0;0
0;0
0;0
3;3
1;1
0;0
0;0
0;0
0;0
3;3
0;0
0;0
0;0
0;0
1;1
0;0
0;0
0;0
9;9
0;0
1;0
0;0
0;0
0;0
0;0
0;0
0;0
8;8
0;0
0;0
3;3
3;3
0;0
0;0
0;0
0;0
0;0
0;0
0;0
0;1
0;0
0;0
0;0
0;0
0;0
0;0
0;0
0;0
8;8
0;0
0;0
0;0
1;1
0;0
0;0
0;0
0;0
0;0
0;0
0;0
0;0
0;0
0;0
0;0
0;0
0;0
8;8
0;0
0;0
0;0
0;0
0;0
0;0
0;0
0;0
0;0
8;8
0;0
0;0
0;0
0;0
0;0
0;0
1;1
0;0
0;0
0;0
0;0
0;0
0;0
0;0
0;0
0;0
1;0
0;0
0;0
0;0
0;0
0;0
0;0
6;1
0;0
0;0
0;0
0;0
8;8
0;0
0;0
0;0
0;0
0;0
0;0
0;0
0;0
0;0
0;0
0;0
0;0
0;0
0;0
0;0
1;1
0;0
0;0
0;0
0;0
0;0
0;0
0;0
9;9
0;0
1;1
0;0
0;0
0;0
0;0
0;0
0;0
0;0
0;0
0;0
3;3
0;0
0;0
0;0
0;0
0;0
0;0
0;0
0;0
0;0
0;0
9;9
0;3
0;0
0;0
0;0
0;0
0;0
0;0
9;9
0;0
0;0
0;0
0;0
0;0
0;0
0;0
0;0
0;0
0;0
3;3
0;0
0;0
0;0
0;0
0;0
8;8
0;0
0;0
0;0
0;0
0;0
0;0
0;0
0;0
0;0
0;0
0;0
0;0
0;0
0;1
0;0
0;0
0;0
0;0
0;0
0;0
0;0
0;0
0;0
0;0
0;0
0;0
0;0
0;0
0;0
0;0
0;0
0;0
0;9
5;5
0;0
0;0
0;0
0;0
0;0
0;0
0;0
0;0
8;8
0;0
0;0
0;0
0;0
0;0
0;0
0;0
9;9
5;5
0;0
0;0
0;0
0;0
0;0
0;0
0;0
0;0
2;0
0;0
0;0
0;0
0;0
0;0
0;0
0;0
0;0
0;0
0;0
0;0
0;0
0;0
9;9
0;0
9;9
0;0
0;0
0;0
0;0
0;0
0;0
5;5
0;0
0;0
1;0
0;0
9;9
0;0
0;0
0;0
9;9
0;0
0;0
0;0
0;0
0;0
0;0
0;0
1;0
0;0
0;0
0;0
0;0
0;0
0;0
0;0
0;0
0;0
0;0
0;0
0;0
0;0
0;0
0;0
9;9
0;0
0;0
0;0
0;0
0;0
1;0
0;0
8;8
0;0
0;0
0;0
0;0
0;0
0;0
0;0
0;0
0;0
0;0
0;0
0;0
5;5
0;0
0;0
0;0
0;0
0;0
0;0
0;0
0;0
0;0
0;0
0;0
0;0
0;0
0;0
0;0
0;0
0;0
0;0
0;0
0;0
0;0
0;0
0;0
0;0
0;0
0;0
0;0
0;0
0;0
3;3
0;0
0;0
4;0
0;0
0;0
9;9
0;0
0;0
0;0
0;0
0;0
8;8
0;0
0;0
0;0
0;0
0;0
0;0
8;8
0;0
0;0
1;1
0;0
0;0
0;0
0;0
0;0
0;0
0;0
0;0
0;0
8;8
0;1
0;0
0;0
0;0
0;0
0;0
3;3
0;0
0;0
0;0
0;0
0;0
0;0
0;0
0;0
0;0
0;0
1;1
9;9
8;8
0;0
0;0
0;0
0;0
0;0
0;0
0;0
8;8
0;0
0;0
0;0
0;0
0;0
0;0
0;0
0;0
0;0
0;0
1;1
8;8
0;0
0;0
0;0
0;0
0;0
9;9
0;0
0;0
0;0
0;0
0;0
0;0
0;0
0;0
0;0
0;0
0;0
0;0
0;0
0;0
0;0
0;0
0;0
0;0
0;0
0;0
0;0
0;0
0;0
9;9
0;0
0;0
0;0
0;0
0;0
0;0
0;0
0;0
0;0
0;0
0;0
9;9
8;8
0;0
0;0
0;0
0;0
0;0
9;9
3;3
0;0
1;1
0;0
0;0
0;0
0;0
0;0
0;0
8;8
0;0
0;0
0;0
0;0
0;0
0;0
0;0
0;0
0;0
0;9
0;0
0;0
8;8
0;0
0;0
0;0
0;0
0;0
0;0
0;0
0;0
0;0
0;0
0;0
0;8
0;0
2;0
0;0
0;0
3;3
0;0
0;0
0;0
0;0
0;0
0;0
0;0
0;0
0;0
8;8
0;0
0;0
0;0
0;0
0;0
0;0
0;0
0;0
0;0
0;0
0;0
0;0
0;0
0;0
0;0
0;0
0;0
0;0
0;0
0;0
3;3
0;0
0;0
0;1
0;0
0;0
0;0
0;0
0;0
0;0
0;0
0;0
0;0
0;0
9;9
1;1
0;0
0;0
0;0
0;0
0;0
0;0
0;0
8;8
8;8
0;0
0;0
9;9
0;0
0;0
1;1
9;9
0;0
0;0
0;0
0;0
0;0
0;0
0;0
0;0
0;0
0;0
0;0
0;0
8;8
9;9
0;0
0;0
0;0
3;3
0;0
0;0
0;0
0;0
0;0
0;0
0;0
0;0
8;8
0;0
0;3
0;0
0;0
0;0
0;0
0;0
0;0
0;0
0;0
0;0
0;0
0;5
0;0
1;1
0;0
0;0
0;0
0;0
0;0
0;0
0;0
0;0
9;9
0;0
0;0
0;0
2;0
0;0
5;5
9;9
1;1
9;9
0;0
0;0
0;0
0;0
0;0
0;0
0;0
0;0
0;0
0;0
0;0
0;0
0;0
0;0
0;0
0;0
1;1
0;0
0;0
0;0
0;0
0;0
0;0
0;0
0;0
8;8
0;0
0;0
0;0
0;0
3;3
0;0
0;0
0;0
8;8
0;0
0;0
0;0
0;0
0;0
0;0
9;9
0;0
8;8
0;0
0;0
0;0
0;0
0;0
0;0
0;0
8;8
0;0
0;0
9;9
0;0
0;0
3;3
0;0
0;0
0;0
0;0
0;0
0;0
9;9
0;0
0;0
0;0
0;0
0;0
